﻿Log file open, 03/20/20 19:20:55
LogWindows: Failed to load 'aqProf.dll' (GetLastError=126)
LogWindows: File 'aqProf.dll' does not exist
LogWindows: Failed to load 'VtuneApi.dll' (GetLastError=126)
LogWindows: File 'VtuneApi.dll' does not exist
LogWindows: Failed to load 'VtuneApi32e.dll' (GetLastError=126)
LogWindows: File 'VtuneApi32e.dll' does not exist
LogConsoleResponse: Display: Failed to find resolution value strings in scalability ini. Falling back to default.
LogInit: Display: Running engine for game: quantum
LogPakFile: Registered encryption key '00000000000000000000000000000000': 0 pak files mounted, 0 remain pending
LogPlatformFile: Not using cached read wrapper
LogTaskGraph: Started task graph with 5 named threads and 14 total threads with 3 sets of task threads.
LogStats: Stats thread started at 0.282959
LogD3D11RHI: Loaded GFSDK_Aftermath_Lib.x64.dll
LogICUInternationalization: ICU TimeZone Detection - Raw Offset: -6:00, Platform Override: ''
LogPluginManager: Mounting plugin Paper2D
LogPluginManager: Mounting plugin AISupport
LogPluginManager: Mounting plugin LightPropagationVolume
LogPluginManager: Mounting plugin ActorLayerUtilities
LogPluginManager: Mounting plugin AnimationSharing
LogPluginManager: Mounting plugin CLionSourceCodeAccess
LogPluginManager: Mounting plugin CodeLiteSourceCodeAccess
LogPluginManager: Mounting plugin GitSourceControl
LogPluginManager: Mounting plugin KDevelopSourceCodeAccess
LogPluginManager: Mounting plugin NullSourceCodeAccess
LogPluginManager: Mounting plugin PerforceSourceControl
LogPluginManager: Mounting plugin SubversionSourceControl
LogPluginManager: Mounting plugin UObjectPlugin
LogPluginManager: Mounting plugin VisualStudioCodeSourceCodeAccess
LogPluginManager: Mounting plugin VisualStudioSourceCodeAccess
LogPluginManager: Mounting plugin XCodeSourceCodeAccess
LogPluginManager: Mounting plugin AssetManagerEditor
LogPluginManager: Mounting plugin CryptoKeys
LogPluginManager: Mounting plugin DataValidation
LogPluginManager: Mounting plugin FacialAnimation
LogPluginManager: Mounting plugin GameplayTagsEditor
LogPluginManager: Mounting plugin MacGraphicsSwitching
LogPluginManager: Mounting plugin MaterialAnalyzer
LogPluginManager: Mounting plugin MobileLauncherProfileWizard
LogPluginManager: Mounting plugin PluginBrowser
LogPluginManager: Mounting plugin SpeedTreeImporter
LogPluginManager: Mounting plugin DatasmithContent
LogPluginManager: Mounting plugin VariantManagerContent
LogPluginManager: Mounting plugin AlembicImporter
LogPluginManager: Mounting plugin AppleImageUtils
LogPluginManager: Mounting plugin AppleVision
LogPluginManager: Mounting plugin BackChannel
LogPluginManager: Mounting plugin CharacterAI
LogPluginManager: Mounting plugin GeometryCache
LogPluginManager: Mounting plugin HTML5Networking
LogPluginManager: Mounting plugin ProxyLODPlugin
LogPluginManager: Mounting plugin SkeletalReduction
LogPluginManager: Mounting plugin MagicLeap
LogPluginManager: Mounting plugin MagicLeapMedia
LogPluginManager: Mounting plugin AndroidMedia
LogPluginManager: Mounting plugin AvfMedia
LogPluginManager: Mounting plugin ImgMedia
LogPluginManager: Mounting plugin LinearTimecode
LogPluginManager: Mounting plugin MediaCompositing
LogPluginManager: Mounting plugin MediaPlayerEditor
LogPluginManager: Mounting plugin WebMMedia
LogPluginManager: Mounting plugin WmfMedia
LogPluginManager: Mounting plugin TcpMessaging
LogPluginManager: Mounting plugin UdpMessaging
LogPluginManager: Mounting plugin ActorSequence
LogPluginManager: Mounting plugin LevelSequenceEditor
LogPluginManager: Mounting plugin MatineeToLevelSequence
LogPluginManager: Mounting plugin NetcodeUnitTest
LogPluginManager: Mounting plugin NUTUnrealEngine4
LogPluginManager: Mounting plugin OnlineSubsystemGooglePlay
LogPluginManager: Mounting plugin OnlineSubsystemIOS
LogPluginManager: Mounting plugin OnlineSubsystem
LogPluginManager: Mounting plugin OnlineSubsystemNull
LogPluginManager: Mounting plugin OnlineSubsystemUtils
LogPluginManager: Mounting plugin LauncherChunkInstaller
LogPluginManager: Mounting plugin AndroidDeviceProfileSelector
LogPluginManager: Mounting plugin AndroidMoviePlayer
LogPluginManager: Mounting plugin AndroidPermission
LogPluginManager: Mounting plugin AppleMoviePlayer
LogPluginManager: Mounting plugin ArchVisCharacter
LogPluginManager: Mounting plugin AudioCapture
LogPluginManager: Mounting plugin CableComponent
LogPluginManager: Mounting plugin CustomMeshComponent
LogPluginManager: Mounting plugin EditableMesh
LogPluginManager: Mounting plugin ExampleDeviceProfileSelector
LogPluginManager: Mounting plugin Firebase
LogPluginManager: Mounting plugin GoogleCloudMessaging
LogPluginManager: Mounting plugin IOSDeviceProfileSelector
LogPluginManager: Mounting plugin LinuxDeviceProfileSelector
LogPluginManager: Mounting plugin LocationServicesBPLibrary
LogPluginManager: Mounting plugin MobilePatchingUtils
LogPluginManager: Mounting plugin OculusVR
LogPluginManager: Mounting plugin PhysXVehicles
LogPluginManager: Mounting plugin ProceduralMeshComponent
LogPluginManager: Mounting plugin RuntimePhysXCooking
LogPluginManager: Mounting plugin SignificanceManager
LogPluginManager: Mounting plugin SteamVR
LogPluginManager: Mounting plugin WebMMoviePlayer
LogPluginManager: Mounting plugin WindowsMoviePlayer
LogInit: Using libcurl 7.55.1-DEV
LogInit:  - built for x86_64-pc-win32
LogInit:  - supports SSL with OpenSSL/1.1.1
LogInit:  - supports HTTP deflate (compression) using libz 1.2.8
LogInit:  - other features:
LogInit:      CURL_VERSION_SSL
LogInit:      CURL_VERSION_LIBZ
LogInit:      CURL_VERSION_IPV6
LogInit:      CURL_VERSION_ASYNCHDNS
LogInit:      CURL_VERSION_LARGEFILE
LogInit:      CURL_VERSION_IDN
LogInit:  CurlRequestOptions (configurable via config and command line):
LogInit:  - bVerifyPeer = true  - Libcurl will verify peer certificate
LogInit:  - bUseHttpProxy = false  - Libcurl will NOT use HTTP proxy
LogInit:  - bDontReuseConnections = false  - Libcurl will reuse connections
LogInit:  - MaxHostConnections = 16  - Libcurl will limit the number of connections to a host
LogInit:  - LocalHostAddr = Default
LogInit:  - BufferSize = 65536
LogInit: WinSock: version 1.1 (2.2), MaxSocks=32767, MaxUdp=65467
LogInit: Build: ++UE4+Release-4.22-CL-7053642
LogInit: Engine Version: 4.22.3-7053642+++UE4+Release-4.22
LogInit: Compatible Engine Version: 4.22.0-5660361+++UE4+Release-4.22
LogInit: Net CL: 5660361
LogInit: OS: Windows 10 (Release 1903) (), CPU: Intel(R) Core(TM) i5-6402P CPU @ 2.80GHz, GPU: NVIDIA GeForce GTX 1060 3GB
LogInit: Compiled (64-bit): Jun 18 2019 03:09:11
LogInit: Compiled with Visual C++: 19.16.27025.01
LogInit: Build Configuration: Development
LogInit: Branch Name: ++UE4+Release-4.22
LogInit: Command Line:  -EpicPortal -epicusername=KillerKevin27 -epicuserid=8fe1c89411894670ac68d8a7f868b701 -epiclocale=en
LogInit: Base Directory: C:/Program Files/Epic Games/UE_4.22/Engine/Binaries/Win64/
LogInit: Installed Engine Build: 1
LogDevObjectVersion: Number of dev versions registered: 23
LogDevObjectVersion:   Dev-Blueprints (B0D832E4-1F89-4F0D-ACCF-7EB736FD4AA2): 10
LogDevObjectVersion:   Dev-Build (E1C64328-A22C-4D53-A36C-8E866417BD8C): 0
LogDevObjectVersion:   Dev-Core (375EC13C-06E4-48FB-B500-84F0262A717E): 3
LogDevObjectVersion:   Dev-Editor (E4B068ED-F494-42E9-A231-DA0B2E46BB41): 30
LogDevObjectVersion:   Dev-Framework (CFFC743F-43B0-4480-9391-14DF171D2073): 35
LogDevObjectVersion:   Dev-Mobile (B02B49B5-BB20-44E9-A304-32B752E40360): 2
LogDevObjectVersion:   Dev-Networking (A4E4105C-59A1-49B5-A7C5-40C4547EDFEE): 0
LogDevObjectVersion:   Dev-Online (39C831C9-5AE6-47DC-9A44-9C173E1C8E7C): 0
LogDevObjectVersion:   Dev-Physics (78F01B33-EBEA-4F98-B9B4-84EACCB95AA2): 0
LogDevObjectVersion:   Dev-Platform (6631380F-2D4D-43E0-8009-CF276956A95A): 0
LogDevObjectVersion:   Dev-Rendering (12F88B9F-8875-4AFC-A67C-D90C383ABD29): 28
LogDevObjectVersion:   Dev-Sequencer (7B5AE74C-D270-4C10-A958-57980B212A5A): 11
LogDevObjectVersion:   Dev-VR (D7296918-1DD6-4BDD-9DE2-64A83CC13884): 2
LogDevObjectVersion:   Dev-LoadTimes (C2A15278-BFE7-4AFE-6C17-90FF531DF755): 1
LogDevObjectVersion:   Private-Geometry (6EACA3D4-40EC-4CC1-B786-8BED09428FC5): 3
LogDevObjectVersion:   Dev-AnimPhys (29E575DD-E0A3-4627-9D10-D276232CDCEA): 17
LogDevObjectVersion:   Dev-Anim (AF43A65D-7FD3-4947-9873-3E8ED9C1BB05): 2
LogDevObjectVersion:   Dev-ReflectionCapture (6B266CEC-1EC7-4B8F-A30B-E4D90942FC07): 1
LogDevObjectVersion:   Dev-Automation (0DF73D61-A23F-47EA-B727-89E90C41499A): 1
LogDevObjectVersion:   FortniteMain (601D1886-AC64-4F84-AA16-D3DE0DEAC7D6): 25
LogDevObjectVersion:   Dev-Enterprise (9DFFBCD6-494F-0158-E221-12823C92A888): 6
LogDevObjectVersion:   Dev-Niagara (F2AED0AC-9AFE-416F-8664-AA7FFA26D6FC): 1
LogDevObjectVersion:   Dev-Destruction (174F1F0B-B4C6-45A5-B13F-2EE8D0FB917D): 2
LogInit: Presizing for max 16777216 objects, including 0 objects not considered by GC, pre-allocating 0 bytes for permanent pool.
LogInit: Object subsystem initialized
LogConfig: Setting CVar [[con.DebugEarlyDefault:1]]
LogConfig: Setting CVar [[r.setres:1280x720]]
[2020.03.21-00.20.56:258][  0]LogConfig: Setting CVar [[r.VSync:0]]
[2020.03.21-00.20.56:258][  0]LogConfig: Setting CVar [[r.RHICmdBypass:0]]
[2020.03.21-00.20.56:258][  0]LogConfig: Applying CVar settings from Section [/Script/Engine.RendererSettings] File [C:/Users/Kevin/Documents/Unreal Projects/quantum/Saved/Config/Windows/Engine.ini]
[2020.03.21-00.20.56:258][  0]LogConfig: Setting CVar [[r.GPUCrashDebugging:0]]
[2020.03.21-00.20.56:258][  0]LogConfig: Applying CVar settings from Section [/Script/Engine.RendererOverrideSettings] File [C:/Users/Kevin/Documents/Unreal Projects/quantum/Saved/Config/Windows/Engine.ini]
[2020.03.21-00.20.56:258][  0]LogConfig: Applying CVar settings from Section [/Script/Engine.StreamingSettings] File [C:/Users/Kevin/Documents/Unreal Projects/quantum/Saved/Config/Windows/Engine.ini]
[2020.03.21-00.20.56:258][  0]LogConfig: Setting CVar [[s.MinBulkDataSizeForAsyncLoading:131072]]
[2020.03.21-00.20.56:258][  0]LogConfig: Setting CVar [[s.AsyncLoadingThreadEnabled:0]]
[2020.03.21-00.20.56:258][  0]LogConfig: Setting CVar [[s.EventDrivenLoaderEnabled:1]]
[2020.03.21-00.20.56:258][  0]LogConfig: Setting CVar [[s.WarnIfTimeLimitExceeded:0]]
[2020.03.21-00.20.56:258][  0]LogConfig: Setting CVar [[s.TimeLimitExceededMultiplier:1.5]]
[2020.03.21-00.20.56:258][  0]LogConfig: Setting CVar [[s.TimeLimitExceededMinTime:0.005]]
[2020.03.21-00.20.56:258][  0]LogConfig: Setting CVar [[s.UseBackgroundLevelStreaming:1]]
[2020.03.21-00.20.56:258][  0]LogConfig: Setting CVar [[s.PriorityAsyncLoadingExtraTime:15.0]]
[2020.03.21-00.20.56:258][  0]LogConfig: Setting CVar [[s.LevelStreamingActorsUpdateTimeLimit:5.0]]
[2020.03.21-00.20.56:258][  0]LogConfig: Setting CVar [[s.PriorityLevelStreamingActorsUpdateExtraTime:5.0]]
[2020.03.21-00.20.56:258][  0]LogConfig: Setting CVar [[s.LevelStreamingComponentsRegistrationGranularity:10]]
[2020.03.21-00.20.56:258][  0]LogConfig: Setting CVar [[s.UnregisterComponentsTimeLimit:1.0]]
[2020.03.21-00.20.56:258][  0]LogConfig: Setting CVar [[s.LevelStreamingComponentsUnregistrationGranularity:5]]
[2020.03.21-00.20.56:258][  0]LogConfig: Applying CVar settings from Section [/Script/Engine.GarbageCollectionSettings] File [C:/Users/Kevin/Documents/Unreal Projects/quantum/Saved/Config/Windows/Engine.ini]
[2020.03.21-00.20.56:258][  0]LogConfig: Setting CVar [[gc.MaxObjectsNotConsideredByGC:1]]
[2020.03.21-00.20.56:258][  0]LogConfig: Setting CVar [[gc.SizeOfPermanentObjectPool:0]]
[2020.03.21-00.20.56:258][  0]LogConfig: Setting CVar [[gc.FlushStreamingOnGC:0]]
[2020.03.21-00.20.56:258][  0]LogConfig: Setting CVar [[gc.NumRetriesBeforeForcingGC:10]]
[2020.03.21-00.20.56:258][  0]LogConfig: Setting CVar [[gc.AllowParallelGC:1]]
[2020.03.21-00.20.56:258][  0]LogConfig: Setting CVar [[gc.TimeBetweenPurgingPendingKillObjects:61.1]]
[2020.03.21-00.20.56:258][  0]LogConfig: Setting CVar [[gc.MaxObjectsInEditor:16777216]]
[2020.03.21-00.20.56:258][  0]LogConfig: Setting CVar [[gc.IncrementalBeginDestroyEnabled:1]]
[2020.03.21-00.20.56:258][  0]LogConfig: Setting CVar [[gc.CreateGCClusters:1]]
[2020.03.21-00.20.56:258][  0]LogConfig: Setting CVar [[gc.MinGCClusterSize:5]]
[2020.03.21-00.20.56:258][  0]LogConfig: Setting CVar [[gc.ActorClusteringEnabled:0]]
[2020.03.21-00.20.56:258][  0]LogConfig: Setting CVar [[gc.BlueprintClusteringEnabled:0]]
[2020.03.21-00.20.56:258][  0]LogConfig: Setting CVar [[gc.UseDisregardForGCOnDedicatedServers:0]]
[2020.03.21-00.20.56:258][  0]LogConfig: Applying CVar settings from Section [/Script/Engine.NetworkSettings] File [C:/Users/Kevin/Documents/Unreal Projects/quantum/Saved/Config/Windows/Engine.ini]
[2020.03.21-00.20.56:258][  0]LogConfig: Applying CVar settings from Section [/Script/UnrealEd.CookerSettings] File [C:/Users/Kevin/Documents/Unreal Projects/quantum/Saved/Config/Windows/Engine.ini]
[2020.03.21-00.20.56:260][  0]LogConfig: Applying CVar settings from Section [ViewDistanceQuality@3] File [C:/Users/Kevin/Documents/Unreal Projects/quantum/Saved/Config/Windows/Scalability.ini]
[2020.03.21-00.20.56:260][  0]LogConfig: Setting CVar [[r.SkeletalMeshLODBias:0]]
[2020.03.21-00.20.56:260][  0]LogConfig: Setting CVar [[r.ViewDistanceScale:1.0]]
[2020.03.21-00.20.56:262][  0]LogConfig: Applying CVar settings from Section [AntiAliasingQuality@3] File [C:/Users/Kevin/Documents/Unreal Projects/quantum/Saved/Config/Windows/Scalability.ini]
[2020.03.21-00.20.56:262][  0]LogConfig: Setting CVar [[r.PostProcessAAQuality:4]]
[2020.03.21-00.20.56:262][  0]LogConfig: Applying CVar settings from Section [ShadowQuality@3] File [C:/Users/Kevin/Documents/Unreal Projects/quantum/Saved/Config/Windows/Scalability.ini]
[2020.03.21-00.20.56:262][  0]LogConfig: Setting CVar [[r.LightFunctionQuality:1]]
[2020.03.21-00.20.56:262][  0]LogConfig: Setting CVar [[r.ShadowQuality:5]]
[2020.03.21-00.20.56:262][  0]LogConfig: Setting CVar [[r.Shadow.CSM.MaxCascades:10]]
[2020.03.21-00.20.56:262][  0]LogConfig: Setting CVar [[r.Shadow.MaxResolution:2048]]
[2020.03.21-00.20.56:262][  0]LogConfig: Setting CVar [[r.Shadow.MaxCSMResolution:2048]]
[2020.03.21-00.20.56:262][  0]LogConfig: Setting CVar [[r.Shadow.RadiusThreshold:0.01]]
[2020.03.21-00.20.56:262][  0]LogConfig: Setting CVar [[r.Shadow.DistanceScale:1.0]]
[2020.03.21-00.20.56:262][  0]LogConfig: Setting CVar [[r.Shadow.CSM.TransitionScale:1.0]]
[2020.03.21-00.20.56:262][  0]LogConfig: Setting CVar [[r.Shadow.PreShadowResolutionFactor:1.0]]
[2020.03.21-00.20.56:262][  0]LogConfig: Setting CVar [[r.DistanceFieldShadowing:1]]
[2020.03.21-00.20.56:262][  0]LogConfig: Setting CVar [[r.DistanceFieldAO:1]]
[2020.03.21-00.20.56:262][  0]LogConfig: Setting CVar [[r.AOQuality:2]]
[2020.03.21-00.20.56:262][  0]LogConfig: Setting CVar [[r.VolumetricFog:1]]
[2020.03.21-00.20.56:262][  0]LogConfig: Setting CVar [[r.VolumetricFog.GridPixelSize:8]]
[2020.03.21-00.20.56:262][  0]LogConfig: Setting CVar [[r.VolumetricFog.GridSizeZ:128]]
[2020.03.21-00.20.56:262][  0]LogConfig: Setting CVar [[r.VolumetricFog.HistoryMissSupersampleCount:4]]
[2020.03.21-00.20.56:262][  0]LogConfig: Setting CVar [[r.LightMaxDrawDistanceScale:1]]
[2020.03.21-00.20.56:262][  0]LogConfig: Setting CVar [[r.CapsuleShadows:1]]
[2020.03.21-00.20.56:262][  0]LogConfig: Applying CVar settings from Section [PostProcessQuality@3] File [C:/Users/Kevin/Documents/Unreal Projects/quantum/Saved/Config/Windows/Scalability.ini]
[2020.03.21-00.20.56:262][  0]LogConfig: Setting CVar [[r.MotionBlurQuality:4]]
[2020.03.21-00.20.56:262][  0]LogConfig: Setting CVar [[r.AmbientOcclusionMipLevelFactor:0.4]]
[2020.03.21-00.20.56:262][  0]LogConfig: Setting CVar [[r.AmbientOcclusionMaxQuality:100]]
[2020.03.21-00.20.56:262][  0]LogConfig: Setting CVar [[r.AmbientOcclusionLevels:-1]]
[2020.03.21-00.20.56:262][  0]LogConfig: Setting CVar [[r.AmbientOcclusionRadiusScale:1.0]]
[2020.03.21-00.20.56:262][  0]LogConfig: Setting CVar [[r.DepthOfFieldQuality:2]]
[2020.03.21-00.20.56:262][  0]LogConfig: Setting CVar [[r.RenderTargetPoolMin:400]]
[2020.03.21-00.20.56:262][  0]LogConfig: Setting CVar [[r.LensFlareQuality:2]]
[2020.03.21-00.20.56:262][  0]LogConfig: Setting CVar [[r.SceneColorFringeQuality:1]]
[2020.03.21-00.20.56:262][  0]LogConfig: Setting CVar [[r.EyeAdaptationQuality:2]]
[2020.03.21-00.20.56:262][  0]LogConfig: Setting CVar [[r.BloomQuality:5]]
[2020.03.21-00.20.56:262][  0]LogConfig: Setting CVar [[r.FastBlurThreshold:100]]
[2020.03.21-00.20.56:262][  0]LogConfig: Setting CVar [[r.Upscale.Quality:3]]
[2020.03.21-00.20.56:262][  0]LogConfig: Setting CVar [[r.Tonemapper.GrainQuantization:1]]
[2020.03.21-00.20.56:262][  0]LogConfig: Setting CVar [[r.LightShaftQuality:1]]
[2020.03.21-00.20.56:262][  0]LogConfig: Setting CVar [[r.Filter.SizeScale:1]]
[2020.03.21-00.20.56:262][  0]LogConfig: Setting CVar [[r.Tonemapper.Quality:5]]
[2020.03.21-00.20.56:262][  0]LogConfig: Setting CVar [[r.DOF.Gather.AccumulatorQuality:1        ; higher gathering accumulator quality]]
[2020.03.21-00.20.56:262][  0]LogConfig: Setting CVar [[r.DOF.Gather.PostfilterMethod:1          ; Median3x3 postfilering method]]
[2020.03.21-00.20.56:262][  0]LogConfig: Setting CVar [[r.DOF.Gather.EnableBokehSettings:0       ; no bokeh simulation when gathering]]
[2020.03.21-00.20.56:262][  0]LogConfig: Setting CVar [[r.DOF.Gather.RingCount:4                 ; medium number of samples when gathering]]
[2020.03.21-00.20.56:262][  0]LogConfig: Setting CVar [[r.DOF.Scatter.ForegroundCompositing:1    ; additive foreground scattering]]
[2020.03.21-00.20.56:262][  0]LogConfig: Setting CVar [[r.DOF.Scatter.BackgroundCompositing:2    ; additive background scattering]]
[2020.03.21-00.20.56:262][  0]LogConfig: Setting CVar [[r.DOF.Scatter.EnableBokehSettings:1      ; bokeh simulation when scattering]]
[2020.03.21-00.20.56:262][  0]LogConfig: Setting CVar [[r.DOF.Scatter.MaxSpriteRatio:0.1         ; only a maximum of 10% of scattered bokeh]]
[2020.03.21-00.20.56:262][  0]LogConfig: Setting CVar [[r.DOF.Recombine.Quality:1                ; cheap slight out of focus]]
[2020.03.21-00.20.56:262][  0]LogConfig: Setting CVar [[r.DOF.Recombine.EnableBokehSettings:0    ; no bokeh simulation on slight out of focus]]
[2020.03.21-00.20.56:262][  0]LogConfig: Setting CVar [[r.DOF.TemporalAAQuality:1                ; more stable temporal accumulation]]
[2020.03.21-00.20.56:262][  0]LogConfig: Setting CVar [[r.DOF.Kernel.MaxForegroundRadius:0.025]]
[2020.03.21-00.20.56:262][  0]LogConfig: Setting CVar [[r.DOF.Kernel.MaxBackgroundRadius:0.025]]
[2020.03.21-00.20.56:262][  0]LogConfig: Applying CVar settings from Section [TextureQuality@3] File [C:/Users/Kevin/Documents/Unreal Projects/quantum/Saved/Config/Windows/Scalability.ini]
[2020.03.21-00.20.56:262][  0]LogConfig: Setting CVar [[r.Streaming.MipBias:0]]
[2020.03.21-00.20.56:262][  0]LogConfig: Setting CVar [[r.Streaming.AmortizeCPUToGPUCopy:0]]
[2020.03.21-00.20.56:262][  0]LogConfig: Setting CVar [[r.Streaming.MaxNumTexturesToStreamPerFrame:0]]
[2020.03.21-00.20.56:262][  0]LogConfig: Setting CVar [[r.Streaming.Boost:1]]
[2020.03.21-00.20.56:262][  0]LogConfig: Setting CVar [[r.MaxAnisotropy:8]]
[2020.03.21-00.20.56:262][  0]LogConfig: Setting CVar [[r.Streaming.LimitPoolSizeToVRAM:0]]
[2020.03.21-00.20.56:262][  0]LogConfig: Setting CVar [[r.Streaming.PoolSize:1000]]
[2020.03.21-00.20.56:262][  0]LogConfig: Setting CVar [[r.Streaming.MaxEffectiveScreenSize:0]]
[2020.03.21-00.20.56:262][  0]LogConfig: Applying CVar settings from Section [EffectsQuality@3] File [C:/Users/Kevin/Documents/Unreal Projects/quantum/Saved/Config/Windows/Scalability.ini]
[2020.03.21-00.20.56:262][  0]LogConfig: Setting CVar [[r.TranslucencyLightingVolumeDim:64]]
[2020.03.21-00.20.56:262][  0]LogConfig: Setting CVar [[r.RefractionQuality:2]]
[2020.03.21-00.20.56:263][  0]LogConfig: Setting CVar [[r.SSR.Quality:3]]
[2020.03.21-00.20.56:263][  0]LogConfig: Setting CVar [[r.SceneColorFormat:4]]
[2020.03.21-00.20.56:263][  0]LogConfig: Setting CVar [[r.DetailMode:2]]
[2020.03.21-00.20.56:263][  0]LogConfig: Setting CVar [[r.TranslucencyVolumeBlur:1]]
[2020.03.21-00.20.56:263][  0]LogConfig: Setting CVar [[r.MaterialQualityLevel:1 ; High quality]]
[2020.03.21-00.20.56:263][  0]LogConfig: Setting CVar [[r.SSS.Scale:1]]
[2020.03.21-00.20.56:263][  0]LogConfig: Setting CVar [[r.SSS.SampleSet:2]]
[2020.03.21-00.20.56:263][  0]LogConfig: Setting CVar [[r.SSS.Quality:1]]
[2020.03.21-00.20.56:263][  0]LogConfig: Setting CVar [[r.SSS.HalfRes:1]]
[2020.03.21-00.20.56:263][  0]LogConfig: Setting CVar [[r.EmitterSpawnRateScale:1.0]]
[2020.03.21-00.20.56:263][  0]LogConfig: Setting CVar [[r.ParticleLightQuality:2]]
[2020.03.21-00.20.56:263][  0]LogConfig: Applying CVar settings from Section [FoliageQuality@3] File [C:/Users/Kevin/Documents/Unreal Projects/quantum/Saved/Config/Windows/Scalability.ini]
[2020.03.21-00.20.56:263][  0]LogConfig: Setting CVar [[foliage.DensityScale:1.0]]
[2020.03.21-00.20.56:263][  0]LogConfig: Setting CVar [[grass.DensityScale:1.0]]
[2020.03.21-00.20.56:263][  0]LogInit: Selected Device Profile: [Windows]
[2020.03.21-00.20.56:263][  0]LogInit: Applying CVar settings loaded from the selected device profile: [Windows]
[2020.03.21-00.20.56:287][  0]LogHAL: Display: Platform has ~ 8 GB [8554356736 / 8589934592 / 8], which maps to Default [LargestMinGB=32, LargerMinGB=12, DefaultMinGB=8, SmallerMinGB=6, SmallestMinGB=0)
[2020.03.21-00.20.56:287][  0]LogConfig: Setting CVar [[r.Vulkan.UseRealUBs:0		; Required until we fix HLR fall-out]]
[2020.03.21-00.20.56:288][  0]LogInit: Going up to parent DeviceProfile []
[2020.03.21-00.20.56:288][  0]LogConfig: Applying CVar settings from Section [ViewDistanceQuality@3] File [C:/Users/Kevin/Documents/Unreal Projects/quantum/Saved/Config/Windows/Scalability.ini]
[2020.03.21-00.20.56:288][  0]LogConfig: Setting CVar [[r.SkeletalMeshLODBias:0]]
[2020.03.21-00.20.56:288][  0]LogConfig: Setting CVar [[r.ViewDistanceScale:1.0]]
[2020.03.21-00.20.56:288][  0]LogConfig: Applying CVar settings from Section [AntiAliasingQuality@3] File [C:/Users/Kevin/Documents/Unreal Projects/quantum/Saved/Config/Windows/Scalability.ini]
[2020.03.21-00.20.56:288][  0]LogConfig: Setting CVar [[r.PostProcessAAQuality:4]]
[2020.03.21-00.20.56:288][  0]LogConfig: Applying CVar settings from Section [ShadowQuality@3] File [C:/Users/Kevin/Documents/Unreal Projects/quantum/Saved/Config/Windows/Scalability.ini]
[2020.03.21-00.20.56:288][  0]LogConfig: Setting CVar [[r.LightFunctionQuality:1]]
[2020.03.21-00.20.56:288][  0]LogConfig: Setting CVar [[r.ShadowQuality:5]]
[2020.03.21-00.20.56:288][  0]LogConfig: Setting CVar [[r.Shadow.CSM.MaxCascades:10]]
[2020.03.21-00.20.56:288][  0]LogConfig: Setting CVar [[r.Shadow.MaxResolution:2048]]
[2020.03.21-00.20.56:288][  0]LogConfig: Setting CVar [[r.Shadow.MaxCSMResolution:2048]]
[2020.03.21-00.20.56:288][  0]LogConfig: Setting CVar [[r.Shadow.RadiusThreshold:0.01]]
[2020.03.21-00.20.56:288][  0]LogConfig: Setting CVar [[r.Shadow.DistanceScale:1.0]]
[2020.03.21-00.20.56:288][  0]LogConfig: Setting CVar [[r.Shadow.CSM.TransitionScale:1.0]]
[2020.03.21-00.20.56:288][  0]LogConfig: Setting CVar [[r.Shadow.PreShadowResolutionFactor:1.0]]
[2020.03.21-00.20.56:288][  0]LogConfig: Setting CVar [[r.DistanceFieldShadowing:1]]
[2020.03.21-00.20.56:288][  0]LogConfig: Setting CVar [[r.DistanceFieldAO:1]]
[2020.03.21-00.20.56:288][  0]LogConfig: Setting CVar [[r.AOQuality:2]]
[2020.03.21-00.20.56:288][  0]LogConfig: Setting CVar [[r.VolumetricFog:1]]
[2020.03.21-00.20.56:288][  0]LogConfig: Setting CVar [[r.VolumetricFog.GridPixelSize:8]]
[2020.03.21-00.20.56:288][  0]LogConfig: Setting CVar [[r.VolumetricFog.GridSizeZ:128]]
[2020.03.21-00.20.56:288][  0]LogConfig: Setting CVar [[r.VolumetricFog.HistoryMissSupersampleCount:4]]
[2020.03.21-00.20.56:288][  0]LogConfig: Setting CVar [[r.LightMaxDrawDistanceScale:1]]
[2020.03.21-00.20.56:288][  0]LogConfig: Setting CVar [[r.CapsuleShadows:1]]
[2020.03.21-00.20.56:288][  0]LogConfig: Applying CVar settings from Section [PostProcessQuality@3] File [C:/Users/Kevin/Documents/Unreal Projects/quantum/Saved/Config/Windows/Scalability.ini]
[2020.03.21-00.20.56:288][  0]LogConfig: Setting CVar [[r.MotionBlurQuality:4]]
[2020.03.21-00.20.56:288][  0]LogConfig: Setting CVar [[r.AmbientOcclusionMipLevelFactor:0.4]]
[2020.03.21-00.20.56:288][  0]LogConfig: Setting CVar [[r.AmbientOcclusionMaxQuality:100]]
[2020.03.21-00.20.56:288][  0]LogConfig: Setting CVar [[r.AmbientOcclusionLevels:-1]]
[2020.03.21-00.20.56:288][  0]LogConfig: Setting CVar [[r.AmbientOcclusionRadiusScale:1.0]]
[2020.03.21-00.20.56:288][  0]LogConfig: Setting CVar [[r.DepthOfFieldQuality:2]]
[2020.03.21-00.20.56:288][  0]LogConfig: Setting CVar [[r.RenderTargetPoolMin:400]]
[2020.03.21-00.20.56:288][  0]LogConfig: Setting CVar [[r.LensFlareQuality:2]]
[2020.03.21-00.20.56:288][  0]LogConfig: Setting CVar [[r.SceneColorFringeQuality:1]]
[2020.03.21-00.20.56:288][  0]LogConfig: Setting CVar [[r.EyeAdaptationQuality:2]]
[2020.03.21-00.20.56:288][  0]LogConfig: Setting CVar [[r.BloomQuality:5]]
[2020.03.21-00.20.56:288][  0]LogConfig: Setting CVar [[r.FastBlurThreshold:100]]
[2020.03.21-00.20.56:288][  0]LogConfig: Setting CVar [[r.Upscale.Quality:3]]
[2020.03.21-00.20.56:288][  0]LogConfig: Setting CVar [[r.Tonemapper.GrainQuantization:1]]
[2020.03.21-00.20.56:288][  0]LogConfig: Setting CVar [[r.LightShaftQuality:1]]
[2020.03.21-00.20.56:288][  0]LogConfig: Setting CVar [[r.Filter.SizeScale:1]]
[2020.03.21-00.20.56:288][  0]LogConfig: Setting CVar [[r.Tonemapper.Quality:5]]
[2020.03.21-00.20.56:288][  0]LogConfig: Setting CVar [[r.DOF.Gather.AccumulatorQuality:1        ; higher gathering accumulator quality]]
[2020.03.21-00.20.56:288][  0]LogConfig: Setting CVar [[r.DOF.Gather.PostfilterMethod:1          ; Median3x3 postfilering method]]
[2020.03.21-00.20.56:288][  0]LogConfig: Setting CVar [[r.DOF.Gather.EnableBokehSettings:0       ; no bokeh simulation when gathering]]
[2020.03.21-00.20.56:288][  0]LogConfig: Setting CVar [[r.DOF.Gather.RingCount:4                 ; medium number of samples when gathering]]
[2020.03.21-00.20.56:288][  0]LogConfig: Setting CVar [[r.DOF.Scatter.ForegroundCompositing:1    ; additive foreground scattering]]
[2020.03.21-00.20.56:288][  0]LogConfig: Setting CVar [[r.DOF.Scatter.BackgroundCompositing:2    ; additive background scattering]]
[2020.03.21-00.20.56:288][  0]LogConfig: Setting CVar [[r.DOF.Scatter.EnableBokehSettings:1      ; bokeh simulation when scattering]]
[2020.03.21-00.20.56:288][  0]LogConfig: Setting CVar [[r.DOF.Scatter.MaxSpriteRatio:0.1         ; only a maximum of 10% of scattered bokeh]]
[2020.03.21-00.20.56:288][  0]LogConfig: Setting CVar [[r.DOF.Recombine.Quality:1                ; cheap slight out of focus]]
[2020.03.21-00.20.56:288][  0]LogConfig: Setting CVar [[r.DOF.Recombine.EnableBokehSettings:0    ; no bokeh simulation on slight out of focus]]
[2020.03.21-00.20.56:288][  0]LogConfig: Setting CVar [[r.DOF.TemporalAAQuality:1                ; more stable temporal accumulation]]
[2020.03.21-00.20.56:288][  0]LogConfig: Setting CVar [[r.DOF.Kernel.MaxForegroundRadius:0.025]]
[2020.03.21-00.20.56:288][  0]LogConfig: Setting CVar [[r.DOF.Kernel.MaxBackgroundRadius:0.025]]
[2020.03.21-00.20.56:288][  0]LogConfig: Applying CVar settings from Section [TextureQuality@3] File [C:/Users/Kevin/Documents/Unreal Projects/quantum/Saved/Config/Windows/Scalability.ini]
[2020.03.21-00.20.56:288][  0]LogConfig: Setting CVar [[r.Streaming.MipBias:0]]
[2020.03.21-00.20.56:288][  0]LogConfig: Setting CVar [[r.Streaming.AmortizeCPUToGPUCopy:0]]
[2020.03.21-00.20.56:288][  0]LogConfig: Setting CVar [[r.Streaming.MaxNumTexturesToStreamPerFrame:0]]
[2020.03.21-00.20.56:288][  0]LogConfig: Setting CVar [[r.Streaming.Boost:1]]
[2020.03.21-00.20.56:288][  0]LogConfig: Setting CVar [[r.MaxAnisotropy:8]]
[2020.03.21-00.20.56:288][  0]LogConfig: Setting CVar [[r.Streaming.LimitPoolSizeToVRAM:0]]
[2020.03.21-00.20.56:288][  0]LogConfig: Setting CVar [[r.Streaming.PoolSize:1000]]
[2020.03.21-00.20.56:288][  0]LogConfig: Setting CVar [[r.Streaming.MaxEffectiveScreenSize:0]]
[2020.03.21-00.20.56:288][  0]LogConfig: Applying CVar settings from Section [EffectsQuality@3] File [C:/Users/Kevin/Documents/Unreal Projects/quantum/Saved/Config/Windows/Scalability.ini]
[2020.03.21-00.20.56:289][  0]LogConfig: Setting CVar [[r.TranslucencyLightingVolumeDim:64]]
[2020.03.21-00.20.56:289][  0]LogConfig: Setting CVar [[r.RefractionQuality:2]]
[2020.03.21-00.20.56:289][  0]LogConfig: Setting CVar [[r.SSR.Quality:3]]
[2020.03.21-00.20.56:289][  0]LogConfig: Setting CVar [[r.SceneColorFormat:4]]
[2020.03.21-00.20.56:289][  0]LogConfig: Setting CVar [[r.DetailMode:2]]
[2020.03.21-00.20.56:289][  0]LogConfig: Setting CVar [[r.TranslucencyVolumeBlur:1]]
[2020.03.21-00.20.56:289][  0]LogConfig: Setting CVar [[r.MaterialQualityLevel:1 ; High quality]]
[2020.03.21-00.20.56:289][  0]LogConfig: Setting CVar [[r.SSS.Scale:1]]
[2020.03.21-00.20.56:289][  0]LogConfig: Setting CVar [[r.SSS.SampleSet:2]]
[2020.03.21-00.20.56:289][  0]LogConfig: Setting CVar [[r.SSS.Quality:1]]
[2020.03.21-00.20.56:289][  0]LogConfig: Setting CVar [[r.SSS.HalfRes:1]]
[2020.03.21-00.20.56:289][  0]LogConfig: Setting CVar [[r.EmitterSpawnRateScale:1.0]]
[2020.03.21-00.20.56:289][  0]LogConfig: Setting CVar [[r.ParticleLightQuality:2]]
[2020.03.21-00.20.56:289][  0]LogConfig: Applying CVar settings from Section [FoliageQuality@3] File [C:/Users/Kevin/Documents/Unreal Projects/quantum/Saved/Config/Windows/Scalability.ini]
[2020.03.21-00.20.56:289][  0]LogConfig: Setting CVar [[foliage.DensityScale:1.0]]
[2020.03.21-00.20.56:289][  0]LogConfig: Setting CVar [[grass.DensityScale:1.0]]
[2020.03.21-00.20.56:289][  0]LogConfig: Applying CVar settings from Section [Startup] File [../../../Engine/Config/ConsoleVariables.ini]
[2020.03.21-00.20.56:289][  0]LogConfig: Setting CVar [[net.UseAdaptiveNetUpdateFrequency:0]]
[2020.03.21-00.20.56:289][  0]LogConfig: Setting CVar [[p.chaos.AllowCreatePhysxBodies:1]]
[2020.03.21-00.20.56:289][  0]LogConfig: Applying CVar settings from Section [ConsoleVariables] File [C:/Users/Kevin/Documents/Unreal Projects/quantum/Saved/Config/Windows/Engine.ini]
[2020.03.21-00.20.56:290][  0]LogInit: Computer: DESKTOP-T9M2L8O
[2020.03.21-00.20.56:290][  0]LogInit: User: Kevin
[2020.03.21-00.20.56:290][  0]LogInit: CPU Page size=4096, Cores=4
[2020.03.21-00.20.56:290][  0]LogInit: High frequency timer resolution =10.000000 MHz
[2020.03.21-00.20.56:290][  0]LogMemory: Memory total: Physical=8.0GB (8GB approx)
[2020.03.21-00.20.56:290][  0]LogMemory: Platform Memory Stats for Windows
[2020.03.21-00.20.56:290][  0]LogMemory: Process Physical Memory: 96.79 MB used, 96.79 MB peak
[2020.03.21-00.20.56:290][  0]LogMemory: Process Virtual Memory: 83.96 MB used, 83.96 MB peak
[2020.03.21-00.20.56:290][  0]LogMemory: Physical Memory: 4157.72 MB used,  4000.35 MB free, 8158.07 MB total
[2020.03.21-00.20.56:290][  0]LogMemory: Virtual Memory: 4625.30 MB used,  134213104.00 MB free, 134217728.00 MB total
[2020.03.21-00.20.56:350][  0]LogInit: Using OS detected language (en-US).
[2020.03.21-00.20.56:350][  0]LogInit: Using OS detected locale (en-US).
[2020.03.21-00.20.56:353][  0]LogTextLocalizationManager: No specific localization for 'en-US' exists, so the 'en' localization will be used.
[2020.03.21-00.20.56:690][  0]LogInit: Setting process to per monitor DPI aware
[2020.03.21-00.20.56:737][  0]LogSlate: New Slate User Created.  User Index 0, Is Virtual User: 0
[2020.03.21-00.20.56:737][  0]LogSlate: Slate User Registered.  User Index 0, Is Virtual User: 0
[2020.03.21-00.20.59:044][  0]LogHMD: Failed to initialize OpenVR with code 110
[2020.03.21-00.20.59:044][  0]LogD3D11RHI: D3D11 adapters:
[2020.03.21-00.20.59:120][  0]LogD3D11RHI:    0. 'NVIDIA GeForce GTX 1060 3GB' (Feature Level 11_0)
[2020.03.21-00.20.59:120][  0]LogD3D11RHI:       2988/0/4079 MB DedicatedVideo/DedicatedSystem/SharedSystem, Outputs:1, VendorId:0x10de
[2020.03.21-00.20.59:125][  0]LogD3D11RHI:    1. 'Microsoft Basic Render Driver' (Feature Level 11_0)
[2020.03.21-00.20.59:125][  0]LogD3D11RHI:       0/0/4079 MB DedicatedVideo/DedicatedSystem/SharedSystem, Outputs:0, VendorId:0x1414
[2020.03.21-00.20.59:125][  0]LogD3D11RHI: Chosen D3D11 Adapter: 0
[2020.03.21-00.20.59:133][  0]LogD3D11RHI: Creating new Direct3DDevice
[2020.03.21-00.20.59:133][  0]LogD3D11RHI:     GPU DeviceId: 0x1c02 (for the marketing name, search the web for "GPU Device Id")
[2020.03.21-00.20.59:134][  0]LogWindows: EnumDisplayDevices:
[2020.03.21-00.20.59:134][  0]LogWindows:    0. 'NVIDIA GeForce GTX 1060 3GB' (P:1 D:1)
[2020.03.21-00.20.59:134][  0]LogWindows:    1. 'NVIDIA GeForce GTX 1060 3GB' (P:0 D:0)
[2020.03.21-00.20.59:134][  0]LogWindows:    2. 'NVIDIA GeForce GTX 1060 3GB' (P:0 D:0)
[2020.03.21-00.20.59:134][  0]LogWindows:    3. 'NVIDIA GeForce GTX 1060 3GB' (P:0 D:0)
[2020.03.21-00.20.59:135][  0]LogWindows: DebugString: FoundDriverCount:4 
[2020.03.21-00.20.59:135][  0]LogD3D11RHI:     Adapter Name: NVIDIA GeForce GTX 1060 3GB
[2020.03.21-00.20.59:135][  0]LogD3D11RHI:   Driver Version: 436.15 (internal:26.21.14.3615, unified:436.15)
[2020.03.21-00.20.59:135][  0]LogD3D11RHI:      Driver Date: 8-24-2019
[2020.03.21-00.20.59:135][  0]LogRHI: Texture pool is 2091 MB (70% of 2988 MB)
[2020.03.21-00.20.59:179][  0]LogD3D11RHI: Async texture creation enabled
[2020.03.21-00.20.59:195][  0]LogRendererCore: FGlobalReadBuffer::InitRHI
[2020.03.21-00.20.59:196][  0]LogRendererCore: FGlobalReadBuffer::InitRHI
[2020.03.21-00.20.59:196][  0]LogRendererCore: FGlobalReadBuffer::InitRHI
[2020.03.21-00.20.59:205][  0]LogD3D11RHI: GPU Timing Frequency: 1000.000000 (Debug: 2 1)
[2020.03.21-00.20.59:584][  0]LogTemp: Display: Module 'AllDesktopTargetPlatform' loaded TargetPlatform 'AllDesktop'
[2020.03.21-00.20.59:599][  0]LogTemp: Display: Module 'MacClientTargetPlatform' loaded TargetPlatform 'MacClient'
[2020.03.21-00.20.59:614][  0]LogTemp: Display: Module 'MacNoEditorTargetPlatform' loaded TargetPlatform 'MacNoEditor'
[2020.03.21-00.20.59:629][  0]LogTemp: Display: Module 'MacServerTargetPlatform' loaded TargetPlatform 'MacServer'
[2020.03.21-00.20.59:649][  0]LogTemp: Display: Module 'MacTargetPlatform' loaded TargetPlatform 'Mac'
[2020.03.21-00.20.59:665][  0]LogTemp: Display: Module 'WindowsClientTargetPlatform' loaded TargetPlatform 'WindowsClient'
[2020.03.21-00.20.59:679][  0]LogTemp: Display: Module 'WindowsNoEditorTargetPlatform' loaded TargetPlatform 'WindowsNoEditor'
[2020.03.21-00.20.59:695][  0]LogTemp: Display: Module 'WindowsServerTargetPlatform' loaded TargetPlatform 'WindowsServer'
[2020.03.21-00.20.59:702][  0]LogTemp: Display: Module 'WindowsTargetPlatform' loaded TargetPlatform 'Windows'
[2020.03.21-00.20.59:801][  0]LogTemp: Display: Module 'AndroidTargetPlatform' loaded TargetPlatform 'Android'
[2020.03.21-00.20.59:801][  0]LogTemp: Display: Module 'AndroidTargetPlatform' loaded TargetPlatform 'Android_ASTC'
[2020.03.21-00.20.59:801][  0]LogTemp: Display: Module 'AndroidTargetPlatform' loaded TargetPlatform 'Android_ATC'
[2020.03.21-00.20.59:801][  0]LogTemp: Display: Module 'AndroidTargetPlatform' loaded TargetPlatform 'Android_DXT'
[2020.03.21-00.20.59:801][  0]LogTemp: Display: Module 'AndroidTargetPlatform' loaded TargetPlatform 'Android_ETC1'
[2020.03.21-00.20.59:801][  0]LogTemp: Display: Module 'AndroidTargetPlatform' loaded TargetPlatform 'Android_ETC1a'
[2020.03.21-00.20.59:801][  0]LogTemp: Display: Module 'AndroidTargetPlatform' loaded TargetPlatform 'Android_ETC2'
[2020.03.21-00.20.59:801][  0]LogTemp: Display: Module 'AndroidTargetPlatform' loaded TargetPlatform 'Android_PVRTC'
[2020.03.21-00.20.59:801][  0]LogTemp: Display: Module 'AndroidTargetPlatform' loaded TargetPlatform 'AndroidClient'
[2020.03.21-00.20.59:801][  0]LogTemp: Display: Module 'AndroidTargetPlatform' loaded TargetPlatform 'Android_ASTCClient'
[2020.03.21-00.20.59:801][  0]LogTemp: Display: Module 'AndroidTargetPlatform' loaded TargetPlatform 'Android_ATCClient'
[2020.03.21-00.20.59:801][  0]LogTemp: Display: Module 'AndroidTargetPlatform' loaded TargetPlatform 'Android_DXTClient'
[2020.03.21-00.20.59:801][  0]LogTemp: Display: Module 'AndroidTargetPlatform' loaded TargetPlatform 'Android_ETC1Client'
[2020.03.21-00.20.59:801][  0]LogTemp: Display: Module 'AndroidTargetPlatform' loaded TargetPlatform 'Android_ETC1aClient'
[2020.03.21-00.20.59:801][  0]LogTemp: Display: Module 'AndroidTargetPlatform' loaded TargetPlatform 'Android_ETC2Client'
[2020.03.21-00.20.59:801][  0]LogTemp: Display: Module 'AndroidTargetPlatform' loaded TargetPlatform 'Android_PVRTCClient'
[2020.03.21-00.20.59:801][  0]LogTemp: Display: Module 'AndroidTargetPlatform' loaded TargetPlatform 'Android_Multi'
[2020.03.21-00.20.59:801][  0]LogTemp: Display: Module 'AndroidTargetPlatform' loaded TargetPlatform 'Android_MultiClient'
[2020.03.21-00.20.59:805][  0]LogTemp: Display: Module 'HTML5TargetPlatform' loaded TargetPlatform 'HTML5'
[2020.03.21-00.20.59:866][  0]LogTemp: Display: Module 'IOSTargetPlatform' loaded TargetPlatform 'IOSClient'
[2020.03.21-00.20.59:866][  0]LogTemp: Display: Module 'IOSTargetPlatform' loaded TargetPlatform 'IOS'
[2020.03.21-00.20.59:892][  0]LogTemp: Display: Module 'TVOSTargetPlatform' loaded TargetPlatform 'TVOSClient'
[2020.03.21-00.20.59:892][  0]LogTemp: Display: Module 'TVOSTargetPlatform' loaded TargetPlatform 'TVOS'
[2020.03.21-00.20.59:904][  0]LogTemp: Display: Module 'LinuxClientTargetPlatform' loaded TargetPlatform 'LinuxClient'
[2020.03.21-00.20.59:917][  0]LogTemp: Display: Module 'LinuxNoEditorTargetPlatform' loaded TargetPlatform 'LinuxNoEditor'
[2020.03.21-00.20.59:930][  0]LogTemp: Display: Module 'LinuxServerTargetPlatform' loaded TargetPlatform 'LinuxServer'
[2020.03.21-00.20.59:953][  0]LogTemp: Display: Module 'LinuxTargetPlatform' loaded TargetPlatform 'Linux'
[2020.03.21-00.21.00:004][  0]LogTemp: Display: Module 'LuminTargetPlatform' loaded TargetPlatform 'Lumin'
[2020.03.21-00.21.00:004][  0]LogTemp: Display: Module 'LuminTargetPlatform' loaded TargetPlatform 'LuminClient'
[2020.03.21-00.21.00:004][  0]LogTargetPlatformManager: Display: Building Assets For Windows
[2020.03.21-00.21.00:015][  0]LogAudioDebug: Display: Lib vorbis DLL was dynamically loaded.
[2020.03.21-00.21.00:090][  0]LogShaderCompilers: Guid format shader working directory is -18 characters bigger than the processId version (../../../../../../Users/Kevin/Documents/Unreal Projects/quantum/Intermediate/Shaders/WorkingDirectory/10688/).
[2020.03.21-00.21.00:090][  0]LogShaderCompilers: Cleaned the shader compiler working directory 'C:/Users/Kevin/AppData/Local/Temp/UnrealShaderWorkingDir/296C8B1D42A18CE65129CE8C2F5AA762/'.
[2020.03.21-00.21.00:093][  0]LogXGEController: Cleaning working directory: C:/Users/Kevin/AppData/Local/Temp/UnrealXGEWorkingDir/
[2020.03.21-00.21.00:093][  0]LogXGEController: Cannot use XGE Controller as Incredibuild is not installed on this machine.
[2020.03.21-00.21.00:093][  0]LogShaderCompilers: Cannot use XGE Shader Compiler as Incredibuild is not installed on this machine.
[2020.03.21-00.21.00:093][  0]LogShaderCompilers: Display: Using Local Shader Compiler.
[2020.03.21-00.21.02:207][  0]LogDerivedDataCache: Display: Max Cache Size: 512 MB
[2020.03.21-00.21.02:410][  0]LogDerivedDataCache: Loaded boot cache 0.20s 74MB C:/Users/Kevin/AppData/Local/UnrealEngine/4.22/DerivedDataCache/Boot.ddc.
[2020.03.21-00.21.02:410][  0]LogDerivedDataCache: Display: Loaded Boot cache: C:/Users/Kevin/AppData/Local/UnrealEngine/4.22/DerivedDataCache/Boot.ddc
[2020.03.21-00.21.02:410][  0]LogDerivedDataCache: FDerivedDataBackendGraph:  Pak pak cache file ../../../../../../Users/Kevin/Documents/Unreal Projects/quantum/DerivedDataCache/DDC.ddp not found, will not use a pak cache.
[2020.03.21-00.21.02:410][  0]LogDerivedDataCache: Unable to find inner node Pak for hierarchical cache Hierarchy.
[2020.03.21-00.21.02:410][  0]LogDerivedDataCache: FDerivedDataBackendGraph:  CompressedPak pak cache file ../../../../../../Users/Kevin/Documents/Unreal Projects/quantum/DerivedDataCache/Compressed.ddp not found, will not use a pak cache.
[2020.03.21-00.21.02:410][  0]LogDerivedDataCache: Unable to find inner node CompressedPak for hierarchical cache Hierarchy.
[2020.03.21-00.21.02:426][  0]LogDerivedDataCache: Display: Pak cache opened for reading ../../../Engine/DerivedDataCache/Compressed.ddp.
[2020.03.21-00.21.02:426][  0]LogDerivedDataCache: FDerivedDataBackendGraph:  EnterprisePak pak cache file ../../../Enterprise/DerivedDataCache/Compressed.ddp not found, will not use a pak cache.
[2020.03.21-00.21.02:426][  0]LogDerivedDataCache: Unable to find inner node EnterprisePak for hierarchical cache Hierarchy.
[2020.03.21-00.21.02:439][  0]LogDerivedDataCache: Using Local data cache path C:/Users/Kevin/AppData/Local/UnrealEngine/Common/DerivedDataCache: Writable
[2020.03.21-00.21.02:439][  0]LogDerivedDataCache: Shared data cache path not found in *engine.ini, will not use an Shared cache.
[2020.03.21-00.21.02:439][  0]LogDerivedDataCache: Unable to find inner node Shared for hierarchical cache Hierarchy.
[2020.03.21-00.21.02:463][  0]LogMaterial: Verifying Global Shaders for PCD3D_SM5
[2020.03.21-00.21.02:466][  0]LogSlate: Using FreeType 2.6.0
[2020.03.21-00.21.02:466][  0]LogSlate: SlateFontServices - WITH_FREETYPE: 1, WITH_HARFBUZZ: 1
[2020.03.21-00.21.02:590][  0]LogAssetRegistry: FAssetRegistry took 0.0343 seconds to start up
[2020.03.21-00.21.02:990][  0]LogInit: Selected Device Profile: [Windows]
[2020.03.21-00.21.03:222][  0]LogMeshReduction: Using QuadricMeshReduction for automatic static mesh reduction
[2020.03.21-00.21.03:222][  0]LogMeshReduction: Using SimplygonMeshReduction for automatic skeletal mesh reduction
[2020.03.21-00.21.03:222][  0]LogMeshReduction: Using ProxyLODMeshReduction for automatic mesh merging
[2020.03.21-00.21.03:222][  0]LogMeshReduction: No distributed automatic mesh merging module available
[2020.03.21-00.21.03:223][  0]LogMeshMerging: No distributed automatic mesh merging module available
[2020.03.21-00.21.03:271][  0]LogNetVersion: quantum 1.0.0, NetCL: 5660361, EngineNetVer: 10, GameNetVer: 0 (Checksum: 2632280116)
[2020.03.21-00.21.04:246][  0]LogPackageLocalizationCache: Processed 10 localized package path(s) for 1 prioritized culture(s) in 0.047976 seconds
[2020.03.21-00.21.04:253][  0]LogUObjectArray: 42205 objects as part of root set at end of initial load.
[2020.03.21-00.21.04:253][  0]LogUObjectAllocator: 7325032 out of 0 bytes used by permanent object pool.
[2020.03.21-00.21.04:253][  0]LogUObjectArray: CloseDisregardForGC: 0/0 objects in disregard for GC pool
[2020.03.21-00.21.07:708][  0]LogTcpMessaging: Initializing TcpMessaging bridge
[2020.03.21-00.21.07:724][  0]LogUdpMessaging: Initializing bridge on interface 0.0.0.0:0 to multicast group 230.0.0.1:6666.
[2020.03.21-00.21.08:084][  0]SourceControl: Source control is disabled
[2020.03.21-00.21.08:084][  0]SourceControl: Source control is disabled
[2020.03.21-00.21.08:092][  0]SourceControl: Source control is disabled
[2020.03.21-00.21.08:094][  0]SourceControl: Source control is disabled
[2020.03.21-00.21.08:223][  0]LogAndroidPermission: UAndroidPermissionCallbackProxy::GetInstance
[2020.03.21-00.21.08:319][  0]LogOcInput: OculusInput pre-init called
[2020.03.21-00.21.09:166][  0]LogEngine: Initializing Engine...
[2020.03.21-00.21.09:168][  0]LogHMD: Failed to initialize OpenVR with code 110
[2020.03.21-00.21.09:169][  0]LogStats: UGameplayTagsManager::InitializeManager -  0.000 s
[2020.03.21-00.21.09:529][  0]LogInit: Initializing FReadOnlyCVARCache
[2020.03.21-00.21.09:554][  0]LogAIModule: Creating AISystem for world Untitled
[2020.03.21-00.21.09:690][  0]LogInit: XAudio2 using 'NS-24D310NA19 (NVIDIA High Definition Audio)' : 2 channels at 48 kHz using 16 bits per sample (channel mask 0x3)
[2020.03.21-00.21.09:787][  0]LogInit: FAudioDevice initialized.
[2020.03.21-00.21.09:787][  0]LogNetVersion: Set ProjectVersion to 1.0.0.0. Version Checksum will be recalculated on next use.
[2020.03.21-00.21.09:866][  0]LogDerivedDataCache: Saved boot cache 0.08s 74MB C:/Users/Kevin/AppData/Local/UnrealEngine/4.22/DerivedDataCache/Boot.ddc.
[2020.03.21-00.21.09:876][  0]LogInit: Texture streaming: Enabled
[2020.03.21-00.21.09:899][  0]LogEngineSessionManager: EngineSessionManager initialized
[2020.03.21-00.21.09:900][  0]LogEngineSessionManager: EngineSessionManager sent abnormal shutdown report. Type=Crashed, SessionId={41DE8AEF-49E9-3DD1-5D09-7BBC57EBD6D0}
[2020.03.21-00.21.09:928][  0]LogInit: Transaction tracking system initialized
[2020.03.21-00.21.09:983][  0]BlueprintLog: New page: Editor Load
[2020.03.21-00.21.10:142][  0]LocalizationService: Localization service is disabled
[2020.03.21-00.21.10:720][  0]LogFileCache: Scanning file cache for directory 'C:/Users/Kevin/Documents/Unreal Projects/quantum/Content/' took 0.01s
[2020.03.21-00.21.10:720][  0]LogCook: Display: Max memory allowance for cook 16384mb min free memory 0mb
[2020.03.21-00.21.10:720][  0]LogCook: Display: Mobile HDR setting 1
[2020.03.21-00.21.11:120][  0]SourceControl: Source control is disabled
[2020.03.21-00.21.11:121][  0]Cmd: MAP LOAD FILE="../../../../../../Users/Kevin/Documents/Unreal Projects/quantum/Content/FirstPersonCPP/Maps/FirstPersonExampleMap.umap" TEMPLATE=0 SHOWPROGRESS=1 FEATURELEVEL=3
[2020.03.21-00.21.11:121][  0]LightingResults: New page: Lighting Build
[2020.03.21-00.21.11:126][  0]MapCheck: New page: Map Check
[2020.03.21-00.21.11:126][  0]LightingResults: New page: Lighting Build
[2020.03.21-00.21.11:153][  0]LogUObjectHash: Compacting FUObjectHashTables data took   2.02ms
[2020.03.21-00.21.11:431][  0]LogTexture: Display: Building textures: HQ_Lightmap0_3 (AutoDXT, 2048X2048)
[2020.03.21-00.21.11:431][  0]LogTexture: Display: Building textures: HQ_Lightmap0_4 (AutoDXT, 2048X2048)
[2020.03.21-00.21.19:582][  0]LogTexture: Display: Building textures: HQ_Lightmap0_5 (AutoDXT, 2048X2048)
[2020.03.21-00.21.19:582][  0]LogTexture: Display: Building textures: HQ_Lightmap0_6 (AutoDXT, 2048X2048)
[2020.03.21-00.21.19:582][  0]LogTexture: Display: Building textures: HQ_Lightmap0_7 (AutoDXT, 1024X1024)
[2020.03.21-00.21.19:582][  0]LogTexture: Display: Building textures: HQ_Lightmap0_8 (AutoDXT, 64X64)
[2020.03.21-00.21.19:582][  0]LogTexture: Display: Building textures: HQ_Lightmap1_1 (AutoDXT, 2048X2048)
[2020.03.21-00.21.19:582][  0]LogTexture: Display: Building textures: HQ_Lightmap1_2 (AutoDXT, 2048X2048)
[2020.03.21-00.21.19:583][  0]LogTexture: Display: Building textures: LQ_Lightmap_0_3 (DXT1, 2048X2048)
[2020.03.21-00.21.19:583][  0]LogTexture: Display: Building textures: LQ_Lightmap_0_4 (DXT1, 2048X2048)
[2020.03.21-00.21.19:583][  0]LogTexture: Display: Building textures: LQ_Lightmap_0_5 (DXT1, 2048X2048)
[2020.03.21-00.21.19:583][  0]LogTexture: Display: Building textures: LQ_Lightmap_0_6 (DXT1, 2048X2048)
[2020.03.21-00.21.19:583][  0]LogTexture: Display: Building textures: LQ_Lightmap_0_7 (DXT1, 1024X1024)
[2020.03.21-00.21.19:583][  0]LogTexture: Display: Building textures: LQ_Lightmap_0_8 (DXT1, 64X64)
[2020.03.21-00.21.19:583][  0]LogTexture: Display: Building textures: LQ_Lightmap_1_1 (DXT1, 2048X2048)
[2020.03.21-00.21.19:583][  0]LogTexture: Display: Building textures: LQ_Lightmap_1_2 (DXT1, 2048X2048)
[2020.03.21-00.21.19:583][  0]LogTexture: Display: Building textures: SkyOcclusion0_3 (AutoDXT, 2048X1024)
[2020.03.21-00.21.19:583][  0]LogTexture: Display: Building textures: SkyOcclusion0_4 (AutoDXT, 2048X1024)
[2020.03.21-00.21.19:583][  0]LogTexture: Display: Building textures: SkyOcclusion0_5 (AutoDXT, 2048X1024)
[2020.03.21-00.21.19:583][  0]LogTexture: Display: Building textures: SkyOcclusion0_6 (AutoDXT, 2048X1024)
[2020.03.21-00.21.19:583][  0]LogTexture: Display: Building textures: SkyOcclusion0_7 (AutoDXT, 1024X512)
[2020.03.21-00.21.19:583][  0]LogTexture: Display: Building textures: SkyOcclusion0_8 (AutoDXT, 64X32)
[2020.03.21-00.21.19:583][  0]LogTexture: Display: Building textures: SkyOcclusion1_1 (AutoDXT, 2048X1024)
[2020.03.21-00.21.19:583][  0]LogTexture: Display: Building textures: SkyOcclusion1_2 (AutoDXT, 2048X1024)
[2020.03.21-00.21.19:583][  0]LogAIModule: Creating AISystem for world FirstPersonExampleMap
[2020.03.21-00.21.19:608][  0]LogEditorServer: Finished looking for orphan Actors (0.000 secs)
[2020.03.21-00.21.19:634][  0]LogUObjectHash: Compacting FUObjectHashTables data took   1.85ms
[2020.03.21-00.21.19:635][  0]Cmd: MAP CHECKDEP NOCLEARLOG
[2020.03.21-00.21.19:635][  0]MapCheck: Map check complete: 0 Error(s), 0 Warning(s), took 0.16ms to complete.
[2020.03.21-00.21.19:635][  0]LogFileHelpers: Loading map 'FirstPersonExampleMap' took 8.513
[2020.03.21-00.21.19:793][  0]LogSlate: Updating window title bar state: overlay mode, drag disabled, window buttons hidden, title bar hidden
[2020.03.21-00.21.19:802][  0]LogSlate: Updating window title bar state: overlay mode, drag disabled, window buttons hidden, title bar hidden
[2020.03.21-00.21.19:810][  0]LogSlate: Updating window title bar state: overlay mode, drag disabled, window buttons hidden, title bar hidden
[2020.03.21-00.21.19:819][  0]LogSlate: Updating window title bar state: overlay mode, drag disabled, window buttons hidden, title bar hidden
[2020.03.21-00.21.19:833][  0]LogCollectionManager: Loaded 0 collections in 0.002390 seconds
[2020.03.21-00.21.19:866][  0]LogFileCache: Scanning file cache for directory 'C:/Users/Kevin/Documents/Unreal Projects/quantum/Saved/Collections/' took 0.01s
[2020.03.21-00.21.19:866][  0]LogFileCache: Scanning file cache for directory 'C:/Users/Kevin/Documents/Unreal Projects/quantum/Content/Developers/Kevin/Collections/' took 0.00s
[2020.03.21-00.21.19:866][  0]LogFileCache: Scanning file cache for directory 'C:/Users/Kevin/Documents/Unreal Projects/quantum/Content/Collections/' took 0.01s
[2020.03.21-00.21.19:866][  0]LogCollectionManager: Rebuilt the GUID cache for 0 collections in 0.000000 seconds
[2020.03.21-00.21.19:876][  0]LogContentBrowser: Native class hierarchy populated in 0.0103 seconds. Added 2737 classes and 661 folders.
[2020.03.21-00.21.19:889][  0]LogContentBrowser: Native class hierarchy updated for 'WidgetCarousel' in 0.0003 seconds. Added 0 classes and 0 folders.
[2020.03.21-00.21.19:898][  0]LogPakFile: Registered encryption key '00000000000000000000000000000000': 0 pak files mounted, 0 remain pending
[2020.03.21-00.21.19:906][  0]LogPakFile: Registered encryption key '00000000000000000000000000000000': 0 pak files mounted, 0 remain pending
[2020.03.21-00.21.19:922][  0]LogPakFile: Registered encryption key '00000000000000000000000000000000': 0 pak files mounted, 0 remain pending
[2020.03.21-00.21.19:928][  0]LogPakFile: Registered encryption key '00000000000000000000000000000000': 0 pak files mounted, 0 remain pending
[2020.03.21-00.21.19:935][  0]LogPakFile: Registered encryption key '00000000000000000000000000000000': 0 pak files mounted, 0 remain pending
[2020.03.21-00.21.19:942][  0]LogPakFile: Registered encryption key '00000000000000000000000000000000': 0 pak files mounted, 0 remain pending
[2020.03.21-00.21.19:948][  0]LogPakFile: Registered encryption key '00000000000000000000000000000000': 0 pak files mounted, 0 remain pending
[2020.03.21-00.21.19:954][  0]LogPakFile: Registered encryption key '00000000000000000000000000000000': 0 pak files mounted, 0 remain pending
[2020.03.21-00.21.19:961][  0]LogPakFile: Registered encryption key '00000000000000000000000000000000': 0 pak files mounted, 0 remain pending
[2020.03.21-00.21.19:969][  0]LogPakFile: Registered encryption key '00000000000000000000000000000000': 0 pak files mounted, 0 remain pending
[2020.03.21-00.21.19:976][  0]LogPakFile: Registered encryption key '00000000000000000000000000000000': 0 pak files mounted, 0 remain pending
[2020.03.21-00.21.19:982][  0]LogPakFile: Registered encryption key '00000000000000000000000000000000': 0 pak files mounted, 0 remain pending
[2020.03.21-00.21.19:989][  0]LogPakFile: Registered encryption key '00000000000000000000000000000000': 0 pak files mounted, 0 remain pending
[2020.03.21-00.21.19:996][  0]LogPakFile: Registered encryption key '00000000000000000000000000000000': 0 pak files mounted, 0 remain pending
[2020.03.21-00.21.20:003][  0]LogPakFile: Registered encryption key '00000000000000000000000000000000': 0 pak files mounted, 0 remain pending
[2020.03.21-00.21.20:009][  0]LogPakFile: Registered encryption key '00000000000000000000000000000000': 0 pak files mounted, 0 remain pending
[2020.03.21-00.21.20:040][  0]LogPakFile: Registered encryption key '00000000000000000000000000000000': 0 pak files mounted, 0 remain pending
[2020.03.21-00.21.20:046][  0]LogPakFile: Registered encryption key '00000000000000000000000000000000': 0 pak files mounted, 0 remain pending
[2020.03.21-00.21.20:052][  0]LogPakFile: Registered encryption key '00000000000000000000000000000000': 0 pak files mounted, 0 remain pending
[2020.03.21-00.21.20:059][  0]LogPakFile: Registered encryption key '00000000000000000000000000000000': 0 pak files mounted, 0 remain pending
[2020.03.21-00.21.20:065][  0]LogPakFile: Registered encryption key '00000000000000000000000000000000': 0 pak files mounted, 0 remain pending
[2020.03.21-00.21.20:072][  0]LogPakFile: Registered encryption key '00000000000000000000000000000000': 0 pak files mounted, 0 remain pending
[2020.03.21-00.21.20:078][  0]LogPakFile: Registered encryption key '00000000000000000000000000000000': 0 pak files mounted, 0 remain pending
[2020.03.21-00.21.20:085][  0]LogPakFile: Registered encryption key '00000000000000000000000000000000': 0 pak files mounted, 0 remain pending
[2020.03.21-00.21.20:091][  0]LogPakFile: Registered encryption key '00000000000000000000000000000000': 0 pak files mounted, 0 remain pending
[2020.03.21-00.21.20:097][  0]LogPakFile: Registered encryption key '00000000000000000000000000000000': 0 pak files mounted, 0 remain pending
[2020.03.21-00.21.20:313][  0]LogContentBrowser: Native class hierarchy updated for 'AddContentDialog' in 0.0004 seconds. Added 0 classes and 0 folders.
[2020.03.21-00.21.20:321][  0]LogContentBrowser: Native class hierarchy updated for 'SceneOutliner' in 0.0004 seconds. Added 1 classes and 2 folders.
[2020.03.21-00.21.20:356][  0]LogSlate: Took 0.000221 seconds to synchronously load lazily loaded font '../../../Engine/Content/Slate/Fonts/Roboto-Regular.ttf' (155K)
[2020.03.21-00.21.20:358][  0]LogSlate: Took 0.000147 seconds to synchronously load lazily loaded font '../../../Engine/Content/Slate/Fonts/Roboto-Bold.ttf' (160K)
[2020.03.21-00.21.20:371][  0]LogSlate: Took 0.008173 seconds to synchronously load lazily loaded font '../../../Engine/Content/Editor/Slate/Fonts/FontAwesome.ttf' (139K)
[2020.03.21-00.21.20:477][  0]LogRenderer: Reallocating scene render targets to support 668x464 Format 10 NumSamples 1 (Frame:1).
[2020.03.21-00.21.20:726][  0]LogContentBrowser: Native class hierarchy updated for 'HierarchicalLODOutliner' in 0.0004 seconds. Added 0 classes and 0 folders.
[2020.03.21-00.21.20:726][  0]LogLoad: (Engine Initialization) Total time: 27.80 seconds
[2020.03.21-00.21.20:726][  0]LogLoad: (Engine Initialization) Total Blueprint compile time: 0.00 seconds
[2020.03.21-00.21.20:760][  0]LogAssetRegistry: Asset discovery search completed in 18.1935 seconds
[2020.03.21-00.21.20:762][  0]LogCollectionManager: Rebuilt the object cache for 0 collections in 0.000000 seconds (found 0 objects)
[2020.03.21-00.21.20:762][  0]LogCollectionManager: Fixed up redirectors for 0 collections in 0.000044 seconds (updated 0 objects)
[2020.03.21-00.21.20:764][  0]LogContentStreaming: Texture pool size now 1000 MB
[2020.03.21-00.21.20:805][  0]LogSlate: Took 0.005974 seconds to synchronously load lazily loaded font '../../../Engine/Content/Slate/Fonts/Roboto-Light.ttf' (167K)
[2020.03.21-00.21.32:417][383]LogSlate: FSceneViewport::OnFocusLost() reason 2
[2020.03.21-00.21.33:488][510]LogTemp: Repeating last play command: Selected Viewport
[2020.03.21-00.21.33:502][510]LogBlueprintUserMessages: Early PlayInEditor Detection: Level '/Game/FirstPersonCPP/Maps/FirstPersonExampleMap.FirstPersonExampleMap:PersistentLevel' has LevelScriptBlueprint '/Game/FirstPersonCPP/Maps/FirstPersonExampleMap.FirstPersonExampleMap:PersistentLevel.FirstPersonExampleMap' with GeneratedClass '/Game/FirstPersonCPP/Maps/FirstPersonExampleMap.FirstPersonExampleMap_C' with ClassGeneratedBy '/Game/FirstPersonCPP/Maps/FirstPersonExampleMap.FirstPersonExampleMap:PersistentLevel.FirstPersonExampleMap'
[2020.03.21-00.21.33:502][510]LogPlayLevel: PlayLevel: No blueprints needed recompiling
[2020.03.21-00.21.33:503][510]PIE: New page: PIE session: FirstPersonExampleMap (Mar 20, 2020, 2:21:33 PM)
[2020.03.21-00.21.33:515][510]LogPlayLevel: Creating play world package: /Game/FirstPersonCPP/Maps/UEDPIE_0_FirstPersonExampleMap
[2020.03.21-00.21.33:544][510]LogPlayLevel: PIE: StaticDuplicateObject took: (0.029020s)
[2020.03.21-00.21.33:545][510]LogAIModule: Creating AISystem for world FirstPersonExampleMap
[2020.03.21-00.21.33:546][510]LogPlayLevel: PIE: World Init took: (0.001281s)
[2020.03.21-00.21.33:546][510]LogPlayLevel: PIE: Created PIE world by copying editor world from /Game/FirstPersonCPP/Maps/FirstPersonExampleMap.FirstPersonExampleMap to /Game/FirstPersonCPP/Maps/UEDPIE_0_FirstPersonExampleMap.FirstPersonExampleMap (0.030802s)
[2020.03.21-00.21.33:566][510]LogUObjectHash: Compacting FUObjectHashTables data took   1.00ms
[2020.03.21-00.21.33:577][510]LogInit: XAudio2 using 'NS-24D310NA19 (NVIDIA High Definition Audio)' : 2 channels at 48 kHz using 16 bits per sample (channel mask 0x3)
[2020.03.21-00.21.33:590][510]LogInit: FAudioDevice initialized.
[2020.03.21-00.21.33:590][510]LogSlate: FSceneViewport::OnFocusLost() reason 2
[2020.03.21-00.21.33:628][510]LogLoad: Game class is 'quantumGameMode'
[2020.03.21-00.21.33:631][510]LogWorld: Bringing World /Game/FirstPersonCPP/Maps/UEDPIE_0_FirstPersonExampleMap.FirstPersonExampleMap up for play (max tick rate 0) at 2020.03.20-19.21.33
[2020.03.21-00.21.33:632][510]LogWorld: Bringing up level for play took: 0.002387
[2020.03.21-00.21.33:651][510]LogContentBrowser: Native class hierarchy updated for 'MovieSceneCapture' in 0.0004 seconds. Added 20 classes and 0 folders.
[2020.03.21-00.21.33:652][510]PIE: Play in editor start time for /Game/FirstPersonCPP/Maps/UEDPIE_0_FirstPersonExampleMap -0.743
[2020.03.21-00.21.33:652][510]LogBlueprintUserMessages: Late PlayInEditor Detection: Level '/Game/FirstPersonCPP/Maps/FirstPersonExampleMap.FirstPersonExampleMap:PersistentLevel' has LevelScriptBlueprint '/Game/FirstPersonCPP/Maps/FirstPersonExampleMap.FirstPersonExampleMap:PersistentLevel.FirstPersonExampleMap' with GeneratedClass '/Game/FirstPersonCPP/Maps/FirstPersonExampleMap.FirstPersonExampleMap_C' with ClassGeneratedBy '/Game/FirstPersonCPP/Maps/FirstPersonExampleMap.FirstPersonExampleMap:PersistentLevel.FirstPersonExampleMap'
